{
    "prepare_queue": {
        "installed": [],
        "uninstalled": []
    },
    "config_munge": {
        "files": {
            "config.xml": {
                "parents": {
                    "/*": [
                        {
                            "xml": "<feature name=\"FacebookConnectPlugin\"><param name=\"ios-package\" value=\"FacebookConnectPlugin\" /><param name=\"onload\" value=\"true\" /></feature>",
                            "count": 1
                        },
                        {
                            "xml": "<plugin name=\"FacebookConnectPlugin\" value=\"FacebookConnectPlugin\" />",
                            "count": 1
                        },
                        {
                            "xml": "<access origin=\"https://m.facebook.com\" />",
                            "count": 1
                        },
                        {
                            "xml": "<access origin=\"https://graph.facebook.com\" />",
                            "count": 1
                        },
                        {
                            "xml": "<access origin=\"https://api.facebook.com\" />",
                            "count": 1
                        },
                        {
                            "xml": "<access origin=\"https://*.fbcdn.net\" />",
                            "count": 1
                        },
                        {
                            "xml": "<access origin=\"https://*.akamaihd.net\" />",
                            "count": 1
                        }
                    ]
                }
            },
            "*-Info.plist": {
                "parents": {
                    "FacebookAppID": [
                        {
                            "xml": "<string>2437069356377552</string>",
                            "count": 1
                        }
                    ],
                    "FacebookDisplayName": [
                        {
                            "xml": "<string>TenPoints</string>",
                            "count": 1
                        }
                    ],
                    "FacebookHybridAppEvents": [
                        {
                            "xml": "<string>false</string>",
                            "count": 1
                        }
                    ],
                    "CFBundleURLTypes": [
                        {
                            "xml": "<array><dict><key>CFBundleURLSchemes</key><array><string>fb2437069356377552</string></array></dict></array>",
                            "count": 1
                        }
                    ],
                    "NSAppTransportSecurity": [
                        {
                            "xml": "<dict><key>NSExceptionDomains</key><dict><key>facebook.com</key><dict><key>NSIncludesSubdomains</key><true /><key>NSThirdPartyExceptionRequiresForwardSecrecy</key><false /></dict><key>fbcdn.net</key><dict><key>NSIncludesSubdomains</key><true /><key>NSThirdPartyExceptionRequiresForwardSecrecy</key><false /></dict><key>akamaihd.net</key><dict><key>NSIncludesSubdomains</key><true /><key>NSThirdPartyExceptionRequiresForwardSecrecy</key><false /></dict></dict></dict>",
                            "count": 1
                        }
                    ],
                    "LSApplicationQueriesSchemes": [
                        {
                            "xml": "<array><string>fbapi</string><string>fb-messenger-api</string><string>fbauth2</string><string>fbshareextension</string></array>",
                            "count": 1
                        }
                    ]
                }
            }
        }
    },
    "installed_plugins": {
        "cordova-plugin-facebook4": {
            "APP_ID": "2437069356377552",
            "APP_NAME": "TenPoints",
            "FACEBOOK_HYBRID_APP_EVENTS": "false",
            "FACEBOOK_ANDROID_SDK_VERSION": "5.2.0",
            "PACKAGE_NAME": "com.aidea.tenpoints"
        }
    },
    "dependent_plugins": {},
    "modules": [
        {
            "id": "cordova-plugin-facebook4.FacebookConnectPlugin",
            "file": "plugins/cordova-plugin-facebook4/www/facebook-native.js",
            "pluginId": "cordova-plugin-facebook4",
            "clobbers": [
                "facebookConnectPlugin"
            ]
        }
    ],
    "plugin_metadata": {
        "cordova-plugin-facebook4": "6.0.0"
    }
}